module github.com/tinygo-org/tinygo

go 1.18

require (
	github.com/aykevl/go-wasm v0.0.2-0.20220616010729-4a0a888aebdc
	github.com/blakesmith/ar v0.0.0-20150311145944-8bd4349a67f2
	github.com/chromedp/cdproto v0.0.0-20220113222801-0725d94bb6ee
	github.com/chromedp/chromedp v0.7.6
	github.com/gofrs/flock v0.8.1
	github.com/google/shlex v0.0.0-20181106134648-c34317bd91bf
	github.com/inhies/go-bytesize v0.0.0-20220417184213-4913239db9cf
	github.com/marcinbor85/gohex v0.0.0-20200531091804-343a4b548892
	github.com/mattn/go-colorable v0.1.8
	github.com/mattn/go-tty v0.0.4
	go.bug.st/serial v1.3.5
	golang.org/x/sys v0.4.0
	golang.org/x/tools v0.5.0
	gopkg.in/yaml.v2 v2.4.0
	tinygo.org/x/go-llvm v0.0.0-20221028183034-8341240c0b32
)

require (
	github.com/chromedp/sysutil v1.0.0 // indirect
	github.com/creack/goselect v0.1.2 // indirect
	github.com/gobwas/httphead v0.1.0 // indirect
	github.com/gobwas/pool v0.2.1 // indirect
	github.com/gobwas/ws v1.1.0 // indirect
	github.com/josharian/intern v1.0.0 // indirect
	github.com/mailru/easyjson v0.7.7 // indirect
	github.com/mattn/go-isatty v0.0.12 // indirect
)
